dat,season,mm,wd,daytype
2018-01-01,winter,1,1,3
2018-01-02,winter,1,2,3
2018-01-03,winter,1,3,3
2018-01-04,winter,1,4,3
2018-01-05,winter,1,5,3
2018-01-06,winter,1,6,3
2018-01-07,winter,1,7,3
2018-01-08,winter,1,1,1
2018-01-09,winter,1,2,1
2018-01-10,winter,1,3,1
2018-01-11,winter,1,4,1
2018-01-12,winter,1,5,2
2018-01-13,winter,1,6,3
2018-01-14,winter,1,7,3
2018-01-15,winter,1,1,1
2018-01-16,winter,1,2,1
2018-01-17,winter,1,3,1
2018-01-18,winter,1,4,1
2018-01-19,winter,1,5,2
2018-01-20,winter,1,6,3
2018-01-21,winter,1,7,3
2018-01-22,winter,1,1,1
2018-01-23,winter,1,2,1
2018-01-24,winter,1,3,1
2018-01-25,winter,1,4,1
2018-01-26,winter,1,5,2
2018-01-27,winter,1,6,3
2018-01-28,winter,1,7,3
2018-01-29,winter,1,1,1
2018-01-30,winter,1,2,1
2018-01-31,winter,1,3,1
2018-02-01,winter,2,4,1
2018-02-02,winter,2,5,2
2018-02-03,winter,2,6,3
2018-02-04,winter,2,7,3
2018-02-05,winter,2,1,1
2018-02-06,winter,2,2,1
2018-02-07,winter,2,3,1
2018-02-08,winter,2,4,1
2018-02-09,winter,2,5,2
2018-02-10,winter,2,6,3
2018-02-11,winter,2,7,3
2018-02-12,winter,2,1,1
2018-02-13,winter,2,2,1
2018-02-14,winter,2,3,1
2018-02-15,winter,2,4,1
2018-02-16,winter,2,5,2
2018-02-17,winter,2,6,3
2018-02-18,winter,2,7,3
2018-02-19,winter,2,1,1
2018-02-20,winter,2,2,1
2018-02-21,winter,2,3,1
2018-02-22,winter,2,4,1
2018-02-23,winter,2,5,2
2018-02-24,winter,2,6,3
2018-02-25,winter,2,7,3
2018-02-26,winter,2,1,1
2018-02-27,winter,2,2,1
2018-02-28,winter,2,3,1
2018-03-01,winter,3,4,1
2018-03-02,winter,3,5,2
2018-03-03,winter,3,6,3
2018-03-04,winter,3,7,3
2018-03-05,winter,3,1,1
2018-03-06,winter,3,2,1
2018-03-07,winter,3,3,1
2018-03-08,winter,3,4,1
2018-03-09,winter,3,5,2
2018-03-10,winter,3,6,3
2018-03-11,winter,3,7,3
2018-03-12,winter,3,1,1
2018-03-13,winter,3,2,1
2018-03-14,winter,3,3,1
2018-03-15,winter,3,4,1
2018-03-16,winter,3,5,2
2018-03-17,winter,3,6,3
2018-03-18,winter,3,7,3
2018-03-19,winter,3,1,1
2018-03-20,winter,3,2,1
2018-03-21,spring,3,3,1
2018-03-22,spring,3,4,1
2018-03-23,spring,3,5,2
2018-03-24,spring,3,6,3
2018-03-25,spring,3,7,3
2018-03-26,spring,3,1,1
2018-03-27,spring,3,2,1
2018-03-28,spring,3,3,1
2018-03-29,spring,3,4,1
2018-03-30,spring,3,5,2
2018-03-31,spring,3,6,3
2018-04-01,spring,4,7,3
2018-04-02,spring,4,1,1
2018-04-03,spring,4,2,1
2018-04-04,spring,4,3,1
2018-04-05,spring,4,4,1
2018-04-06,spring,4,5,2
2018-04-07,spring,4,6,3
2018-04-08,spring,4,7,3
2018-04-09,spring,4,1,1
2018-04-10,spring,4,2,1
2018-04-11,spring,4,3,1
2018-04-12,spring,4,4,1
2018-04-13,spring,4,5,2
2018-04-14,spring,4,6,3
2018-04-15,spring,4,7,3
2018-04-16,spring,4,1,1
2018-04-17,spring,4,2,1
2018-04-18,spring,4,3,1
2018-04-19,spring,4,4,1
2018-04-20,spring,4,5,2
2018-04-21,spring,4,6,3
2018-04-22,spring,4,7,3
2018-04-23,spring,4,1,1
2018-04-24,spring,4,2,1
2018-04-25,spring,4,3,3
2018-04-26,spring,4,4,1
2018-04-27,spring,4,5,2
2018-04-28,spring,4,6,3
2018-04-29,spring,4,7,3
2018-04-30,spring,4,1,1
2018-05-01,spring,5,2,3
2018-05-02,spring,5,3,1
2018-05-03,spring,5,4,1
2018-05-04,spring,5,5,2
2018-05-05,spring,5,6,3
2018-05-06,spring,5,7,3
2018-05-07,spring,5,1,1
2018-05-08,spring,5,2,1
2018-05-09,spring,5,3,1
2018-05-10,spring,5,4,1
2018-05-11,spring,5,5,2
2018-05-12,spring,5,6,3
2018-05-13,spring,5,7,3
2018-05-14,spring,5,1,1
2018-05-15,spring,5,2,1
2018-05-16,spring,5,3,1
2018-05-17,spring,5,4,1
2018-05-18,spring,5,5,2
2018-05-19,spring,5,6,3
2018-05-20,spring,5,7,3
2018-05-21,spring,5,1,1
2018-05-22,spring,5,2,1
2018-05-23,spring,5,3,1
2018-05-24,spring,5,4,1
2018-05-25,spring,5,5,2
2018-05-26,spring,5,6,3
2018-05-27,spring,5,7,3
2018-05-28,spring,5,1,1
2018-05-29,spring,5,2,1
2018-05-30,spring,5,3,1
2018-05-31,spring,5,4,1
2018-06-01,spring,6,5,2
2018-06-02,spring,6,6,3
2018-06-03,spring,6,7,3
2018-06-04,spring,6,1,1
2018-06-05,spring,6,2,1
2018-06-06,spring,6,3,1
2018-06-07,spring,6,4,1
2018-06-08,spring,6,5,2
2018-06-09,spring,6,6,3
2018-06-10,spring,6,7,3
2018-06-11,spring,6,1,1
2018-06-12,spring,6,2,1
2018-06-13,spring,6,3,1
2018-06-14,spring,6,4,1
2018-06-15,spring,6,5,2
2018-06-16,spring,6,6,3
2018-06-17,spring,6,7,3
2018-06-18,spring,6,1,1
2018-06-19,spring,6,2,1
2018-06-20,summer,6,3,1
2018-06-21,summer,6,4,1
2018-06-22,summer,6,5,2
2018-06-23,summer,6,6,3
2018-06-24,summer,6,7,3
2018-06-25,summer,6,1,1
2018-06-26,summer,6,2,1
2018-06-27,summer,6,3,1
2018-06-28,summer,6,4,1
2018-06-29,summer,6,5,2
2018-06-30,summer,6,6,3
2018-07-01,summer,7,7,3
2018-07-02,summer,7,1,1
2018-07-03,summer,7,2,1
2018-07-04,summer,7,3,1
2018-07-05,summer,7,4,1
2018-07-06,summer,7,5,2
2018-07-07,summer,7,6,3
2018-07-08,summer,7,7,3
2018-07-09,summer,7,1,1
2018-07-10,summer,7,2,1
2018-07-11,summer,7,3,1
2018-07-12,summer,7,4,1
2018-07-13,summer,7,5,2
2018-07-14,summer,7,6,3
2018-07-15,summer,7,7,3
2018-07-16,summer,7,1,1
2018-07-17,summer,7,2,1
2018-07-18,summer,7,3,1
2018-07-19,summer,7,4,1
2018-07-20,summer,7,5,2
2018-07-21,summer,7,6,3
2018-07-22,summer,7,7,3
2018-07-23,summer,7,1,1
2018-07-24,summer,7,2,1
2018-07-25,summer,7,3,1
2018-07-26,summer,7,4,1
2018-07-27,summer,7,5,2
2018-07-28,summer,7,6,3
2018-07-29,summer,7,7,3
2018-07-30,summer,7,1,1
2018-07-31,summer,7,2,1
2018-08-01,summer,8,3,1
2018-08-02,summer,8,4,1
2018-08-03,summer,8,5,2
2018-08-04,summer,8,6,3
2018-08-05,summer,8,7,3
2018-08-06,summer,8,1,1
2018-08-07,summer,8,2,1
2018-08-08,summer,8,3,1
2018-08-09,summer,8,4,1
2018-08-10,summer,8,5,2
2018-08-11,summer,8,6,3
2018-08-12,summer,8,7,3
2018-08-13,summer,8,1,1
2018-08-14,summer,8,2,3
2018-08-15,summer,8,3,3
2018-08-16,summer,8,4,3
2018-08-17,summer,8,5,2
2018-08-18,summer,8,6,3
2018-08-19,summer,8,7,3
2018-08-20,summer,8,1,1
2018-08-21,summer,8,2,1
2018-08-22,summer,8,3,1
2018-08-23,summer,8,4,1
2018-08-24,summer,8,5,2
2018-08-25,summer,8,6,3
2018-08-26,summer,8,7,3
2018-08-27,summer,8,1,1
2018-08-28,summer,8,2,1
2018-08-29,summer,8,3,1
2018-08-30,summer,8,4,1
2018-08-31,summer,8,5,2
2018-09-01,summer,9,6,3
2018-09-02,summer,9,7,3
2018-09-03,summer,9,1,1
2018-09-04,summer,9,2,1
2018-09-05,summer,9,3,1
2018-09-06,summer,9,4,1
2018-09-07,summer,9,5,2
2018-09-08,summer,9,6,3
2018-09-09,summer,9,7,3
2018-09-10,summer,9,1,1
2018-09-11,summer,9,2,1
2018-09-12,summer,9,3,1
2018-09-13,summer,9,4,1
2018-09-14,summer,9,5,2
2018-09-15,summer,9,6,3
2018-09-16,summer,9,7,3
2018-09-17,summer,9,1,1
2018-09-18,summer,9,2,1
2018-09-19,autumn,9,3,1
2018-09-20,autumn,9,4,1
2018-09-21,autumn,9,5,2
2018-09-22,autumn,9,6,3
2018-09-23,autumn,9,7,3
2018-09-24,autumn,9,1,1
2018-09-25,autumn,9,2,1
2018-09-26,autumn,9,3,1
2018-09-27,autumn,9,4,1
2018-09-28,autumn,9,5,2
2018-09-29,autumn,9,6,3
2018-09-30,autumn,9,7,3
2018-10-01,autumn,10,1,1
2018-10-02,autumn,10,2,1
2018-10-03,autumn,10,3,1
2018-10-04,autumn,10,4,1
2018-10-05,autumn,10,5,2
2018-10-06,autumn,10,6,3
2018-10-07,autumn,10,7,3
2018-10-08,autumn,10,1,1
2018-10-09,autumn,10,2,1
2018-10-10,autumn,10,3,1
2018-10-11,autumn,10,4,1
2018-10-12,autumn,10,5,2
2018-10-13,autumn,10,6,3
2018-10-14,autumn,10,7,3
2018-10-15,autumn,10,1,1
2018-10-16,autumn,10,2,1
2018-10-17,autumn,10,3,1
2018-10-18,autumn,10,4,1
2018-10-19,autumn,10,5,2
2018-10-20,autumn,10,6,3
2018-10-21,autumn,10,7,3
2018-10-22,autumn,10,1,1
2018-10-23,autumn,10,2,1
2018-10-24,autumn,10,3,1
2018-10-25,autumn,10,4,1
2018-10-26,autumn,10,5,2
2018-10-27,autumn,10,6,3
2018-10-28,autumn,10,7,3
2018-10-29,autumn,10,1,1
2018-10-30,autumn,10,2,1
2018-10-31,autumn,10,3,1
2018-11-01,autumn,11,4,3
2018-11-02,autumn,11,5,3
2018-11-03,autumn,11,6,3
2018-11-04,autumn,11,7,3
2018-11-05,autumn,11,1,1
2018-11-06,autumn,11,2,1
2018-11-07,autumn,11,3,1
2018-11-08,autumn,11,4,1
2018-11-09,autumn,11,5,2
2018-11-10,autumn,11,6,3
2018-11-11,autumn,11,7,3
2018-11-12,autumn,11,1,1
2018-11-13,autumn,11,2,1
2018-11-14,autumn,11,3,1
2018-11-15,autumn,11,4,1
2018-11-16,autumn,11,5,2
2018-11-17,autumn,11,6,3
2018-11-18,autumn,11,7,3
2018-11-19,autumn,11,1,1
2018-11-20,autumn,11,2,1
2018-11-21,autumn,11,3,1
2018-11-22,autumn,11,4,1
2018-11-23,autumn,11,5,2
2018-11-24,autumn,11,6,3
2018-11-25,autumn,11,7,3
2018-11-26,autumn,11,1,1
2018-11-27,autumn,11,2,1
2018-11-28,autumn,11,3,1
2018-11-29,autumn,11,4,1
2018-11-30,autumn,11,5,2
2018-12-01,autumn,12,6,3
2018-12-02,autumn,12,7,3
2018-12-03,autumn,12,1,1
2018-12-04,autumn,12,2,1
2018-12-05,autumn,12,3,1
2018-12-06,autumn,12,4,1
2018-12-07,autumn,12,5,2
2018-12-08,autumn,12,6,3
2018-12-09,autumn,12,7,3
2018-12-10,autumn,12,1,1
2018-12-11,autumn,12,2,1
2018-12-12,autumn,12,3,1
2018-12-13,autumn,12,4,1
2018-12-14,autumn,12,5,2
2018-12-15,autumn,12,6,3
2018-12-16,autumn,12,7,3
2018-12-17,autumn,12,1,1
2018-12-18,autumn,12,2,1
2018-12-19,autumn,12,3,1
2018-12-20,winter,12,4,1
2018-12-21,winter,12,5,2
2018-12-22,winter,12,6,3
2018-12-23,winter,12,7,3
2018-12-24,winter,12,1,3
2018-12-25,winter,12,2,3
2018-12-26,winter,12,3,3
2018-12-27,winter,12,4,3
2018-12-28,winter,12,5,3
2018-12-29,winter,12,6,3
2018-12-30,winter,12,7,3
2018-12-31,winter,12,1,3
2019-01-01,winter,1,2,3
2019-01-02,winter,1,3,3
2019-01-03,winter,1,4,3
2019-01-04,winter,1,5,3
2019-01-05,winter,1,6,3
2019-01-06,winter,1,7,3
2019-01-07,winter,1,1,1
2019-01-08,winter,1,2,1
2019-01-09,winter,1,3,1
2019-01-10,winter,1,4,1
2019-01-11,winter,1,5,2
2019-01-12,winter,1,6,3
2019-01-13,winter,1,7,3
2019-01-14,winter,1,1,1
2019-01-15,winter,1,2,1
2019-01-16,winter,1,3,1
2019-01-17,winter,1,4,1
2019-01-18,winter,1,5,2
2019-01-19,winter,1,6,3
2019-01-20,winter,1,7,3
2019-01-21,winter,1,1,1
2019-01-22,winter,1,2,1
2019-01-23,winter,1,3,1
2019-01-24,winter,1,4,1
2019-01-25,winter,1,5,2
2019-01-26,winter,1,6,3
2019-01-27,winter,1,7,3
2019-01-28,winter,1,1,1
2019-01-29,winter,1,2,1
2019-01-30,winter,1,3,1
2019-01-31,winter,1,4,1
2019-02-01,winter,2,5,2
2019-02-02,winter,2,6,3
2019-02-03,winter,2,7,3
2019-02-04,winter,2,1,1
2019-02-05,winter,2,2,1
2019-02-06,winter,2,3,1
2019-02-07,winter,2,4,1
2019-02-08,winter,2,5,2
2019-02-09,winter,2,6,3
2019-02-10,winter,2,7,3
2019-02-11,winter,2,1,1
2019-02-12,winter,2,2,1
2019-02-13,winter,2,3,1
2019-02-14,winter,2,4,1
2019-02-15,winter,2,5,2
2019-02-16,winter,2,6,3
2019-02-17,winter,2,7,3
2019-02-18,winter,2,1,1
2019-02-19,winter,2,2,1
2019-02-20,winter,2,3,1
2019-02-21,winter,2,4,1
2019-02-22,winter,2,5,2
2019-02-23,winter,2,6,3
2019-02-24,winter,2,7,3
2019-02-25,winter,2,1,1
2019-02-26,winter,2,2,1
2019-02-27,winter,2,3,1
2019-02-28,winter,2,4,1
2019-03-01,winter,3,5,2
2019-03-02,winter,3,6,3
2019-03-03,winter,3,7,3
2019-03-04,winter,3,1,1
2019-03-05,winter,3,2,1
2019-03-06,winter,3,3,1
2019-03-07,winter,3,4,1
2019-03-08,winter,3,5,2
2019-03-09,winter,3,6,3
2019-03-10,winter,3,7,3
2019-03-11,winter,3,1,1
2019-03-12,winter,3,2,1
2019-03-13,winter,3,3,1
2019-03-14,winter,3,4,1
2019-03-15,winter,3,5,2
2019-03-16,winter,3,6,3
2019-03-17,winter,3,7,3
2019-03-18,winter,3,1,1
2019-03-19,winter,3,2,1
2019-03-20,winter,3,3,1
2019-03-21,spring,3,4,1
2019-03-22,spring,3,5,2
2019-03-23,spring,3,6,3
2019-03-24,spring,3,7,3
2019-03-25,spring,3,1,1
2019-03-26,spring,3,2,1
2019-03-27,spring,3,3,1
2019-03-28,spring,3,4,1
2019-03-29,spring,3,5,2
2019-03-30,spring,3,6,3
2019-03-31,spring,3,7,3
2019-04-01,spring,4,1,1
2019-04-02,spring,4,2,1
2019-04-03,spring,4,3,1
2019-04-04,spring,4,4,1
2019-04-05,spring,4,5,2
2019-04-06,spring,4,6,3
2019-04-07,spring,4,7,3
2019-04-08,spring,4,1,1
2019-04-09,spring,4,2,1
2019-04-10,spring,4,3,1
2019-04-11,spring,4,4,1
2019-04-12,spring,4,5,2
2019-04-13,spring,4,6,3
2019-04-14,spring,4,7,3
2019-04-15,spring,4,1,1
2019-04-16,spring,4,2,1
2019-04-17,spring,4,3,1
2019-04-18,spring,4,4,1
2019-04-19,spring,4,5,2
2019-04-20,spring,4,6,3
2019-04-21,spring,4,7,3
2019-04-22,spring,4,1,1
2019-04-23,spring,4,2,1
2019-04-24,spring,4,3,1
2019-04-25,spring,4,4,3
2019-04-26,spring,4,5,2
2019-04-27,spring,4,6,3
2019-04-28,spring,4,7,3
2019-04-29,spring,4,1,1
2019-04-30,spring,4,2,1
2019-05-01,spring,5,3,3
2019-05-02,spring,5,4,1
2019-05-03,spring,5,5,2
2019-05-04,spring,5,6,3
2019-05-05,spring,5,7,3
2019-05-06,spring,5,1,1
2019-05-07,spring,5,2,1
2019-05-08,spring,5,3,1
2019-05-09,spring,5,4,1
2019-05-10,spring,5,5,2
2019-05-11,spring,5,6,3
2019-05-12,spring,5,7,3
2019-05-13,spring,5,1,1
2019-05-14,spring,5,2,1
2019-05-15,spring,5,3,1
2019-05-16,spring,5,4,1
2019-05-17,spring,5,5,2
2019-05-18,spring,5,6,3
2019-05-19,spring,5,7,3
2019-05-20,spring,5,1,1
2019-05-21,spring,5,2,1
2019-05-22,spring,5,3,1
2019-05-23,spring,5,4,1
2019-05-24,spring,5,5,2
2019-05-25,spring,5,6,3
2019-05-26,spring,5,7,3
2019-05-27,spring,5,1,1
2019-05-28,spring,5,2,1
2019-05-29,spring,5,3,1
2019-05-30,spring,5,4,1
2019-05-31,spring,5,5,2
2019-06-01,spring,6,6,3
2019-06-02,spring,6,7,3
2019-06-03,spring,6,1,1
2019-06-04,spring,6,2,1
2019-06-05,spring,6,3,1
2019-06-06,spring,6,4,1
2019-06-07,spring,6,5,2
2019-06-08,spring,6,6,3
2019-06-09,spring,6,7,3
2019-06-10,spring,6,1,1
2019-06-11,spring,6,2,1
2019-06-12,spring,6,3,1
2019-06-13,spring,6,4,1
2019-06-14,spring,6,5,2
2019-06-15,spring,6,6,3
2019-06-16,spring,6,7,3
2019-06-17,spring,6,1,1
2019-06-18,spring,6,2,1
2019-06-19,spring,6,3,1
2019-06-20,summer,6,4,1
2019-06-21,summer,6,5,2
2019-06-22,summer,6,6,3
2019-06-23,summer,6,7,3
2019-06-24,summer,6,1,1
2019-06-25,summer,6,2,1
2019-06-26,summer,6,3,1
2019-06-27,summer,6,4,1
2019-06-28,summer,6,5,2
2019-06-29,summer,6,6,3
2019-06-30,summer,6,7,3
2019-07-01,summer,7,1,1
2019-07-02,summer,7,2,1
2019-07-03,summer,7,3,1
2019-07-04,summer,7,4,1
2019-07-05,summer,7,5,2
2019-07-06,summer,7,6,3
2019-07-07,summer,7,7,3
2019-07-08,summer,7,1,1
2019-07-09,summer,7,2,1
2019-07-10,summer,7,3,1
2019-07-11,summer,7,4,1
2019-07-12,summer,7,5,2
2019-07-13,summer,7,6,3
2019-07-14,summer,7,7,3
2019-07-15,summer,7,1,1
2019-07-16,summer,7,2,1
2019-07-17,summer,7,3,1
2019-07-18,summer,7,4,1
2019-07-19,summer,7,5,2
2019-07-20,summer,7,6,3
2019-07-21,summer,7,7,3
2019-07-22,summer,7,1,1
2019-07-23,summer,7,2,1
2019-07-24,summer,7,3,1
2019-07-25,summer,7,4,1
2019-07-26,summer,7,5,2
2019-07-27,summer,7,6,3
2019-07-28,summer,7,7,3
2019-07-29,summer,7,1,1
2019-07-30,summer,7,2,1
2019-07-31,summer,7,3,1
2019-08-01,summer,8,4,1
2019-08-02,summer,8,5,2
2019-08-03,summer,8,6,3
2019-08-04,summer,8,7,3
2019-08-05,summer,8,1,1
2019-08-06,summer,8,2,1
2019-08-07,summer,8,3,1
2019-08-08,summer,8,4,1
2019-08-09,summer,8,5,2
2019-08-10,summer,8,6,3
2019-08-11,summer,8,7,3
2019-08-12,summer,8,1,1
2019-08-13,summer,8,2,1
2019-08-14,summer,8,3,3
2019-08-15,summer,8,4,3
2019-08-16,summer,8,5,3
2019-08-17,summer,8,6,3
2019-08-18,summer,8,7,3
2019-08-19,summer,8,1,1
2019-08-20,summer,8,2,1
2019-08-21,summer,8,3,1
2019-08-22,summer,8,4,1
2019-08-23,summer,8,5,2
2019-08-24,summer,8,6,3
2019-08-25,summer,8,7,3
2019-08-26,summer,8,1,1
2019-08-27,summer,8,2,1
2019-08-28,summer,8,3,1
2019-08-29,summer,8,4,1
2019-08-30,summer,8,5,2
2019-08-31,summer,8,6,3
2019-09-01,summer,9,7,3
2019-09-02,summer,9,1,1
2019-09-03,summer,9,2,1
2019-09-04,summer,9,3,1
2019-09-05,summer,9,4,1
2019-09-06,summer,9,5,2
2019-09-07,summer,9,6,3
2019-09-08,summer,9,7,3
2019-09-09,summer,9,1,1
2019-09-10,summer,9,2,1
2019-09-11,summer,9,3,1
2019-09-12,summer,9,4,1
2019-09-13,summer,9,5,2
2019-09-14,summer,9,6,3
2019-09-15,summer,9,7,3
2019-09-16,summer,9,1,1
2019-09-17,summer,9,2,1
2019-09-18,summer,9,3,1
2019-09-19,autumn,9,4,1
2019-09-20,autumn,9,5,2
2019-09-21,autumn,9,6,3
2019-09-22,autumn,9,7,3
2019-09-23,autumn,9,1,1
2019-09-24,autumn,9,2,1
2019-09-25,autumn,9,3,1
2019-09-26,autumn,9,4,1
2019-09-27,autumn,9,5,2
2019-09-28,autumn,9,6,3
2019-09-29,autumn,9,7,3
2019-09-30,autumn,9,1,1
2019-10-01,autumn,10,2,1
2019-10-02,autumn,10,3,1
2019-10-03,autumn,10,4,1
2019-10-04,autumn,10,5,2
2019-10-05,autumn,10,6,3
2019-10-06,autumn,10,7,3
2019-10-07,autumn,10,1,1
2019-10-08,autumn,10,2,1
2019-10-09,autumn,10,3,1
2019-10-10,autumn,10,4,1
2019-10-11,autumn,10,5,2
2019-10-12,autumn,10,6,3
2019-10-13,autumn,10,7,3
2019-10-14,autumn,10,1,1
2019-10-15,autumn,10,2,1
2019-10-16,autumn,10,3,1
2019-10-17,autumn,10,4,1
2019-10-18,autumn,10,5,2
2019-10-19,autumn,10,6,3
2019-10-20,autumn,10,7,3
2019-10-21,autumn,10,1,1
2019-10-22,autumn,10,2,1
2019-10-23,autumn,10,3,1
2019-10-24,autumn,10,4,1
2019-10-25,autumn,10,5,2
2019-10-26,autumn,10,6,3
2019-10-27,autumn,10,7,3
2019-10-28,autumn,10,1,1
2019-10-29,autumn,10,2,1
2019-10-30,autumn,10,3,1
2019-10-31,autumn,10,4,1
2019-11-01,autumn,11,5,3
2019-11-02,autumn,11,6,3
2019-11-03,autumn,11,7,3
2019-11-04,autumn,11,1,1
2019-11-05,autumn,11,2,1
2019-11-06,autumn,11,3,1
2019-11-07,autumn,11,4,1
2019-11-08,autumn,11,5,2
2019-11-09,autumn,11,6,3
2019-11-10,autumn,11,7,3
2019-11-11,autumn,11,1,1
2019-11-12,autumn,11,2,1
2019-11-13,autumn,11,3,1
2019-11-14,autumn,11,4,1
2019-11-15,autumn,11,5,2
2019-11-16,autumn,11,6,3
2019-11-17,autumn,11,7,3
2019-11-18,autumn,11,1,1
2019-11-19,autumn,11,2,1
2019-11-20,autumn,11,3,1
2019-11-21,autumn,11,4,1
2019-11-22,autumn,11,5,2
2019-11-23,autumn,11,6,3
2019-11-24,autumn,11,7,3
2019-11-25,autumn,11,1,1
2019-11-26,autumn,11,2,1
2019-11-27,autumn,11,3,1
2019-11-28,autumn,11,4,1
2019-11-29,autumn,11,5,2
2019-11-30,autumn,11,6,3
2019-12-01,autumn,12,7,3
2019-12-02,autumn,12,1,1
2019-12-03,autumn,12,2,1
2019-12-04,autumn,12,3,1
2019-12-05,autumn,12,4,1
2019-12-06,autumn,12,5,2
2019-12-07,autumn,12,6,3
2019-12-08,autumn,12,7,3
2019-12-09,autumn,12,1,1
2019-12-10,autumn,12,2,1
2019-12-11,autumn,12,3,1
2019-12-12,autumn,12,4,1
2019-12-13,autumn,12,5,2
2019-12-14,autumn,12,6,3
2019-12-15,autumn,12,7,3
2019-12-16,autumn,12,1,1
2019-12-17,autumn,12,2,1
2019-12-18,autumn,12,3,1
2019-12-19,autumn,12,4,1
2019-12-20,winter,12,5,2
2019-12-21,winter,12,6,3
2019-12-22,winter,12,7,3
2019-12-23,winter,12,1,1
2019-12-24,winter,12,2,3
2019-12-25,winter,12,3,3
2019-12-26,winter,12,4,3
2019-12-27,winter,12,5,3
2019-12-28,winter,12,6,3
2019-12-29,winter,12,7,3
2019-12-30,winter,12,1,3
2019-12-31,winter,12,2,3
2020-01-01,winter,1,3,3
2020-01-02,winter,1,4,3
2020-01-03,winter,1,5,3
2020-01-04,winter,1,6,3
2020-01-05,winter,1,7,3
2020-01-06,winter,1,1,3
2020-01-07,winter,1,2,1
2020-01-08,winter,1,3,1
2020-01-09,winter,1,4,1
2020-01-10,winter,1,5,2
2020-01-11,winter,1,6,3
2020-01-12,winter,1,7,3
2020-01-13,winter,1,1,1
2020-01-14,winter,1,2,1
2020-01-15,winter,1,3,1
2020-01-16,winter,1,4,1
2020-01-17,winter,1,5,2
2020-01-18,winter,1,6,3
2020-01-19,winter,1,7,3
2020-01-20,winter,1,1,1
2020-01-21,winter,1,2,1
2020-01-22,winter,1,3,1
2020-01-23,winter,1,4,1
2020-01-24,winter,1,5,2
2020-01-25,winter,1,6,3
2020-01-26,winter,1,7,3
2020-01-27,winter,1,1,1
2020-01-28,winter,1,2,1
2020-01-29,winter,1,3,1
2020-01-30,winter,1,4,1
2020-01-31,winter,1,5,2
2020-02-01,winter,2,6,3
2020-02-02,winter,2,7,3
2020-02-03,winter,2,1,1
2020-02-04,winter,2,2,1
2020-02-05,winter,2,3,1
2020-02-06,winter,2,4,1
2020-02-07,winter,2,5,2
2020-02-08,winter,2,6,3
2020-02-09,winter,2,7,3
2020-02-10,winter,2,1,1
2020-02-11,winter,2,2,1
2020-02-12,winter,2,3,1
2020-02-13,winter,2,4,1
2020-02-14,winter,2,5,2
2020-02-15,winter,2,6,3
2020-02-16,winter,2,7,3
2020-02-17,winter,2,1,1
2020-02-18,winter,2,2,1
2020-02-19,winter,2,3,1
2020-02-20,winter,2,4,1
2020-02-21,winter,2,5,2
2020-02-22,winter,2,6,3
2020-02-23,winter,2,7,3
2020-02-24,winter,2,1,1
2020-02-25,winter,2,2,1
2020-02-26,winter,2,3,1
2020-02-27,winter,2,4,1
2020-02-28,winter,2,5,2
2020-02-29,winter,2,6,3
2020-03-01,winter,3,7,3
2020-03-02,winter,3,1,3
2020-03-03,winter,3,2,3
2020-03-04,winter,3,3,3
2020-03-05,winter,3,4,3
2020-03-06,winter,3,5,3
2020-03-07,winter,3,6,3
2020-03-08,winter,3,7,3
2020-03-09,winter,3,1,3
2020-03-10,winter,3,2,3
2020-03-11,winter,3,3,3
2020-03-12,winter,3,4,3
2020-03-13,winter,3,5,3
2020-03-14,winter,3,6,3
2020-03-15,winter,3,7,3
2020-03-16,winter,3,1,3
2020-03-17,winter,3,2,3
2020-03-18,winter,3,3,3
2020-03-19,winter,3,4,3
2020-03-20,spring,3,5,3
2020-03-21,spring,3,6,3
2020-03-22,spring,3,7,3
2020-03-23,spring,3,1,3
2020-03-24,spring,3,2,3
2020-03-25,spring,3,3,3
2020-03-26,spring,3,4,3
2020-03-27,spring,3,5,3
2020-03-28,spring,3,6,3
2020-03-29,spring,3,7,3
2020-03-30,spring,3,1,3
2020-03-31,spring,3,2,3
2020-04-01,spring,4,3,3
2020-04-02,spring,4,4,3
2020-04-03,spring,4,5,3
2020-04-04,spring,4,6,3
2020-04-05,spring,4,7,3
2020-04-06,spring,4,1,3
2020-04-07,spring,4,2,3
2020-04-08,spring,4,3,3
2020-04-09,spring,4,4,3
2020-04-10,spring,4,5,3
2020-04-11,spring,4,6,3
2020-04-12,spring,4,7,3
2020-04-13,spring,4,1,3
2020-04-14,spring,4,2,3
2020-04-15,spring,4,3,3
2020-04-16,spring,4,4,3
2020-04-17,spring,4,5,3
2020-04-18,spring,4,6,3
2020-04-19,spring,4,7,3
2020-04-20,spring,4,1,3
2020-04-21,spring,4,2,3
2020-04-22,spring,4,3,3
2020-04-23,spring,4,4,3
2020-04-24,spring,4,5,3
2020-04-25,spring,4,6,3
2020-04-26,spring,4,7,3
2020-04-27,spring,4,1,3
2020-04-28,spring,4,2,3
2020-04-29,spring,4,3,3
2020-04-30,spring,4,4,3
2020-05-01,spring,5,5,3
2020-05-02,spring,5,6,3
2020-05-03,spring,5,7,3
2020-05-04,spring,5,1,3
2020-05-05,spring,5,2,3
2020-05-06,spring,5,3,3
2020-05-07,spring,5,4,3
2020-05-08,spring,5,5,3
2020-05-09,spring,5,6,3
2020-05-10,spring,5,7,3
2020-05-11,spring,5,1,3
2020-05-12,spring,5,2,3
2020-05-13,spring,5,3,3
2020-05-14,spring,5,4,3
2020-05-15,spring,5,5,3
2020-05-16,spring,5,6,3
2020-05-17,spring,5,7,3
2020-05-18,spring,5,1,3
2020-05-19,spring,5,2,3
2020-05-20,spring,5,3,3
2020-05-21,spring,5,4,3
2020-05-22,spring,5,5,3
2020-05-23,spring,5,6,3
2020-05-24,spring,5,7,3
2020-05-25,spring,5,1,3
2020-05-26,spring,5,2,3
2020-05-27,spring,5,3,3
2020-05-28,spring,5,4,3
2020-05-29,spring,5,5,3
2020-05-30,spring,5,6,3
2020-05-31,spring,5,7,3
2020-06-01,spring,6,1,1
2020-06-02,spring,6,2,3
2020-06-03,spring,6,3,1
2020-06-04,spring,6,4,1
2020-06-05,spring,6,5,2
2020-06-06,spring,6,6,3
2020-06-07,spring,6,7,3
2020-06-08,spring,6,1,1
2020-06-09,spring,6,2,1
2020-06-10,spring,6,3,1
2020-06-11,spring,6,4,1
2020-06-12,spring,6,5,2
2020-06-13,spring,6,6,3
2020-06-14,spring,6,7,3
2020-06-15,spring,6,1,1
2020-06-16,spring,6,2,1
2020-06-17,spring,6,3,1
2020-06-18,spring,6,4,1
2020-06-19,summer,6,5,2
2020-06-20,summer,6,6,3
2020-06-21,summer,6,7,3
2020-06-22,summer,6,1,1
2020-06-23,summer,6,2,1
2020-06-24,summer,6,3,1
2020-06-25,summer,6,4,1
2020-06-26,summer,6,5,2
2020-06-27,summer,6,6,3
2020-06-28,summer,6,7,3
2020-06-29,summer,6,1,1
2020-06-30,summer,6,2,1
2020-07-01,summer,7,3,1
2020-07-02,summer,7,4,1
2020-07-03,summer,7,5,2
2020-07-04,summer,7,6,3
2020-07-05,summer,7,7,3
2020-07-06,summer,7,1,1
2020-07-07,summer,7,2,1
2020-07-08,summer,7,3,1
2020-07-09,summer,7,4,1
2020-07-10,summer,7,5,2
2020-07-11,summer,7,6,3
2020-07-12,summer,7,7,3
2020-07-13,summer,7,1,1
2020-07-14,summer,7,2,1
2020-07-15,summer,7,3,1
2020-07-16,summer,7,4,1
2020-07-17,summer,7,5,2
2020-07-18,summer,7,6,3
2020-07-19,summer,7,7,3
2020-07-20,summer,7,1,1
2020-07-21,summer,7,2,1
2020-07-22,summer,7,3,1
2020-07-23,summer,7,4,1
2020-07-24,summer,7,5,2
2020-07-25,summer,7,6,3
2020-07-26,summer,7,7,3
2020-07-27,summer,7,1,1
2020-07-28,summer,7,2,1
2020-07-29,summer,7,3,1
2020-07-30,summer,7,4,1
2020-07-31,summer,7,5,2
2020-08-01,summer,8,6,3
2020-08-02,summer,8,7,3
2020-08-03,summer,8,1,1
2020-08-04,summer,8,2,1
2020-08-05,summer,8,3,1
2020-08-06,summer,8,4,1
2020-08-07,summer,8,5,2
2020-08-08,summer,8,6,3
2020-08-09,summer,8,7,3
2020-08-10,summer,8,1,1
2020-08-11,summer,8,2,1
2020-08-12,summer,8,3,1
2020-08-13,summer,8,4,1
2020-08-14,summer,8,5,3
2020-08-15,summer,8,6,3
2020-08-16,summer,8,7,3
2020-08-17,summer,8,1,1
2020-08-18,summer,8,2,1
2020-08-19,summer,8,3,1
2020-08-20,summer,8,4,1
2020-08-21,summer,8,5,2
2020-08-22,summer,8,6,3
2020-08-23,summer,8,7,3
2020-08-24,summer,8,1,1
2020-08-25,summer,8,2,1
2020-08-26,summer,8,3,1
2020-08-27,summer,8,4,1
2020-08-28,summer,8,5,2
2020-08-29,summer,8,6,3
2020-08-30,summer,8,7,3
2020-08-31,summer,8,1,1
2020-09-01,summer,9,2,1
2020-09-02,summer,9,3,1
2020-09-03,summer,9,4,1
2020-09-04,summer,9,5,2
2020-09-05,summer,9,6,3
2020-09-06,summer,9,7,3
2020-09-07,summer,9,1,1
2020-09-08,summer,9,2,1
2020-09-09,summer,9,3,1
2020-09-10,summer,9,4,1
2020-09-11,summer,9,5,2
2020-09-12,summer,9,6,3
2020-09-13,summer,9,7,3
2020-09-14,summer,9,1,1
2020-09-15,summer,9,2,1
2020-09-16,summer,9,3,1
2020-09-17,summer,9,4,1
2020-09-18,autumn,9,5,2
2020-09-19,autumn,9,6,3
2020-09-20,autumn,9,7,3
2020-09-21,autumn,9,1,1
2020-09-22,autumn,9,2,1
2020-09-23,autumn,9,3,1
2020-09-24,autumn,9,4,1
2020-09-25,autumn,9,5,2
2020-09-26,autumn,9,6,3
2020-09-27,autumn,9,7,3
2020-09-28,autumn,9,1,1
2020-09-29,autumn,9,2,1
2020-09-30,autumn,9,3,1
2020-10-01,autumn,10,4,1
2020-10-02,autumn,10,5,2
2020-10-03,autumn,10,6,3
2020-10-04,autumn,10,7,3
2020-10-05,autumn,10,1,1
2020-10-06,autumn,10,2,1
2020-10-07,autumn,10,3,1
2020-10-08,autumn,10,4,1
2020-10-09,autumn,10,5,2
2020-10-10,autumn,10,6,3
2020-10-11,autumn,10,7,3
2020-10-12,autumn,10,1,1
2020-10-13,autumn,10,2,1
2020-10-14,autumn,10,3,1
2020-10-15,autumn,10,4,1
2020-10-16,autumn,10,5,2
2020-10-17,autumn,10,6,3
2020-10-18,autumn,10,7,3
2020-10-19,autumn,10,1,1
2020-10-20,autumn,10,2,1
2020-10-21,autumn,10,3,1
2020-10-22,autumn,10,4,1
2020-10-23,autumn,10,5,2
2020-10-24,autumn,10,6,3
2020-10-25,autumn,10,7,3
2020-10-26,autumn,10,1,1
2020-10-27,autumn,10,2,1
2020-10-28,autumn,10,3,1
2020-10-29,autumn,10,4,1
2020-10-30,autumn,10,5,2
2020-10-31,autumn,10,6,3
2020-11-01,autumn,11,7,3
2020-11-02,autumn,11,1,3
2020-11-03,autumn,11,2,3
2020-11-04,autumn,11,3,1
2020-11-05,autumn,11,4,1
2020-11-06,autumn,11,5,2
2020-11-07,autumn,11,6,3
2020-11-08,autumn,11,7,3
2020-11-09,autumn,11,1,1
2020-11-10,autumn,11,2,1
2020-11-11,autumn,11,3,1
2020-11-12,autumn,11,4,1
2020-11-13,autumn,11,5,2
2020-11-14,autumn,11,6,3
2020-11-15,autumn,11,7,3
2020-11-16,autumn,11,1,1
2020-11-17,autumn,11,2,1
2020-11-18,autumn,11,3,1
2020-11-19,autumn,11,4,1
2020-11-20,autumn,11,5,2
2020-11-21,autumn,11,6,3
2020-11-22,autumn,11,7,3
2020-11-23,autumn,11,1,1
2020-11-24,autumn,11,2,1
2020-11-25,autumn,11,3,1
2020-11-26,autumn,11,4,1
2020-11-27,autumn,11,5,2
2020-11-28,autumn,11,6,3
2020-11-29,autumn,11,7,3
2020-11-30,autumn,11,1,1
2020-12-01,autumn,12,2,1
2020-12-02,autumn,12,3,1
2020-12-03,autumn,12,4,1
2020-12-04,autumn,12,5,2
2020-12-05,autumn,12,6,3
2020-12-06,autumn,12,7,3
2020-12-07,autumn,12,1,1
2020-12-08,autumn,12,2,1
2020-12-09,autumn,12,3,1
2020-12-10,autumn,12,4,1
2020-12-11,autumn,12,5,2
2020-12-12,autumn,12,6,3
2020-12-13,autumn,12,7,3
2020-12-14,autumn,12,1,1
2020-12-15,autumn,12,2,1
2020-12-16,autumn,12,3,1
2020-12-17,autumn,12,4,1
2020-12-18,autumn,12,5,2
2020-12-19,winter,12,6,3
2020-12-20,winter,12,7,3
2020-12-21,winter,12,1,1
2020-12-22,winter,12,2,1
2020-12-23,winter,12,3,1
2020-12-24,winter,12,4,3
2020-12-25,winter,12,5,3
2020-12-26,winter,12,6,3
2020-12-27,winter,12,7,3
2020-12-28,winter,12,1,3
2020-12-29,winter,12,2,3
2020-12-30,winter,12,3,3
2020-12-31,winter,12,4,3
2021-01-01,winter,1,5,3
2021-01-02,winter,1,6,3
2021-01-03,winter,1,7,3
2021-01-04,winter,1,1,3
2021-01-05,winter,1,2,3
2021-01-06,winter,1,3,3
2021-01-07,winter,1,4,1
2021-01-08,winter,1,5,2
2021-01-09,winter,1,6,3
2021-01-10,winter,1,7,3
2021-01-11,winter,1,1,1
2021-01-12,winter,1,2,1
2021-01-13,winter,1,3,1
2021-01-14,winter,1,4,1
2021-01-15,winter,1,5,2
2021-01-16,winter,1,6,3
2021-01-17,winter,1,7,3
2021-01-18,winter,1,1,1
2021-01-19,winter,1,2,1
2021-01-20,winter,1,3,1
2021-01-21,winter,1,4,1
2021-01-22,winter,1,5,2
2021-01-23,winter,1,6,3
2021-01-24,winter,1,7,3
2021-01-25,winter,1,1,1
2021-01-26,winter,1,2,1
2021-01-27,winter,1,3,1
2021-01-28,winter,1,4,1
2021-01-29,winter,1,5,2
2021-01-30,winter,1,6,3
2021-01-31,winter,1,7,3
2021-02-01,winter,2,1,1
2021-02-02,winter,2,2,1
2021-02-03,winter,2,3,1
2021-02-04,winter,2,4,1
2021-02-05,winter,2,5,2
2021-02-06,winter,2,6,3
2021-02-07,winter,2,7,3
2021-02-08,winter,2,1,1
2021-02-09,winter,2,2,1
2021-02-10,winter,2,3,1
2021-02-11,winter,2,4,1
2021-02-12,winter,2,5,2
2021-02-13,winter,2,6,3
2021-02-14,winter,2,7,3
2021-02-15,winter,2,1,1
2021-02-16,winter,2,2,1
2021-02-17,winter,2,3,1
2021-02-18,winter,2,4,1
2021-02-19,winter,2,5,2
2021-02-20,winter,2,6,3
2021-02-21,winter,2,7,3
2021-02-22,winter,2,1,1
2021-02-23,winter,2,2,1
2021-02-24,winter,2,3,1
2021-02-25,winter,2,4,1
2021-02-26,winter,2,5,2
2021-02-27,winter,2,6,3
2021-02-28,winter,2,7,3
2021-03-01,winter,3,1,1
2021-03-02,winter,3,2,1
2021-03-03,winter,3,3,1
2021-03-04,winter,3,4,1
2021-03-05,winter,3,5,2
2021-03-06,winter,3,6,3
2021-03-07,winter,3,7,3
2021-03-08,winter,3,1,1
2021-03-09,winter,3,2,1
2021-03-10,winter,3,3,1
2021-03-11,winter,3,4,1
2021-03-12,winter,3,5,2
2021-03-13,winter,3,6,3
2021-03-14,winter,3,7,3
2021-03-15,winter,3,1,1
2021-03-16,winter,3,2,1
2021-03-17,winter,3,3,1
2021-03-18,winter,3,4,1
2021-03-19,winter,3,5,2
2021-03-20,winter,3,6,3
2021-03-21,spring,3,7,3
2021-03-22,spring,3,1,1
2021-03-23,spring,3,2,1
2021-03-24,spring,3,3,1
2021-03-25,spring,3,4,1
2021-03-26,spring,3,5,2
2021-03-27,spring,3,6,3
2021-03-28,spring,3,7,3
2021-03-29,spring,3,1,1
2021-03-30,spring,3,2,1
2021-03-31,spring,3,3,1
2021-04-01,spring,4,4,1
2021-04-02,spring,4,5,2
2021-04-03,spring,4,6,3
2021-04-04,spring,4,7,3
2021-04-05,spring,4,1,1
2021-04-06,spring,4,2,1
2021-04-07,spring,4,3,1
2021-04-08,spring,4,4,1
2021-04-09,spring,4,5,2
2021-04-10,spring,4,6,3
2021-04-11,spring,4,7,3
2021-04-12,spring,4,1,1
2021-04-13,spring,4,2,1
2021-04-14,spring,4,3,1
2021-04-15,spring,4,4,1
2021-04-16,spring,4,5,2
2021-04-17,spring,4,6,3
2021-04-18,spring,4,7,3
2021-04-19,spring,4,1,1
2021-04-20,spring,4,2,1
2021-04-21,spring,4,3,1
2021-04-22,spring,4,4,1
2021-04-23,spring,4,5,2
2021-04-24,spring,4,6,3
2021-04-25,spring,4,7,3
2021-04-26,spring,4,1,1
2021-04-27,spring,4,2,1
2021-04-28,spring,4,3,1
2021-04-29,spring,4,4,1
2021-04-30,spring,4,5,2
2021-05-01,spring,5,6,3
2021-05-02,spring,5,7,3
2021-05-03,spring,5,1,1
2021-05-04,spring,5,2,1
2021-05-05,spring,5,3,1
2021-05-06,spring,5,4,1
2021-05-07,spring,5,5,2
2021-05-08,spring,5,6,3
2021-05-09,spring,5,7,3
2021-05-10,spring,5,1,1
2021-05-11,spring,5,2,1
2021-05-12,spring,5,3,1
2021-05-13,spring,5,4,1
2021-05-14,spring,5,5,2
2021-05-15,spring,5,6,3
2021-05-16,spring,5,7,3
2021-05-17,spring,5,1,1
2021-05-18,spring,5,2,1
2021-05-19,spring,5,3,1
2021-05-20,spring,5,4,1
2021-05-21,spring,5,5,2
2021-05-22,spring,5,6,3
2021-05-23,spring,5,7,3
2021-05-24,spring,5,1,1
2021-05-25,spring,5,2,1
2021-05-26,spring,5,3,1
2021-05-27,spring,5,4,1
2021-05-28,spring,5,5,2
2021-05-29,spring,5,6,3
2021-05-30,spring,5,7,3
2021-05-31,spring,5,1,1
2021-06-01,spring,6,2,1
2021-06-02,spring,6,3,3
2021-06-03,spring,6,4,1
2021-06-04,spring,6,5,2
2021-06-05,spring,6,6,3
2021-06-06,spring,6,7,3
2021-06-07,spring,6,1,1
2021-06-08,spring,6,2,1
2021-06-09,spring,6,3,1
2021-06-10,spring,6,4,1
2021-06-11,spring,6,5,2
2021-06-12,spring,6,6,3
2021-06-13,spring,6,7,3
2021-06-14,spring,6,1,1
2021-06-15,spring,6,2,1
2021-06-16,spring,6,3,1
2021-06-17,spring,6,4,1
2021-06-18,spring,6,5,2
2021-06-19,spring,6,6,3
2021-06-20,summer,6,7,3
2021-06-21,summer,6,1,1
2021-06-22,summer,6,2,1
2021-06-23,summer,6,3,1
2021-06-24,summer,6,4,1
2021-06-25,summer,6,5,2
2021-06-26,summer,6,6,3
2021-06-27,summer,6,7,3
2021-06-28,summer,6,1,1
2021-06-29,summer,6,2,1
2021-06-30,summer,6,3,1
2021-07-01,summer,7,4,1
2021-07-02,summer,7,5,2
2021-07-03,summer,7,6,3
2021-07-04,summer,7,7,3
2021-07-05,summer,7,1,1
2021-07-06,summer,7,2,1
2021-07-07,summer,7,3,1
2021-07-08,summer,7,4,1
2021-07-09,summer,7,5,2
2021-07-10,summer,7,6,3
2021-07-11,summer,7,7,3
2021-07-12,summer,7,1,1
2021-07-13,summer,7,2,1
2021-07-14,summer,7,3,1
2021-07-15,summer,7,4,1
2021-07-16,summer,7,5,2
2021-07-17,summer,7,6,3
2021-07-18,summer,7,7,3
2021-07-19,summer,7,1,1
2021-07-20,summer,7,2,1
2021-07-21,summer,7,3,1
2021-07-22,summer,7,4,1
2021-07-23,summer,7,5,2
2021-07-24,summer,7,6,3
2021-07-25,summer,7,7,3
2021-07-26,summer,7,1,1
2021-07-27,summer,7,2,1
2021-07-28,summer,7,3,1
2021-07-29,summer,7,4,1
2021-07-30,summer,7,5,2
2021-07-31,summer,7,6,3
2021-08-01,summer,8,7,3
2021-08-02,summer,8,1,1
2021-08-03,summer,8,2,1
2021-08-04,summer,8,3,1
2021-08-05,summer,8,4,1
2021-08-06,summer,8,5,2
2021-08-07,summer,8,6,3
2021-08-08,summer,8,7,3
2021-08-09,summer,8,1,1
2021-08-10,summer,8,2,1
2021-08-11,summer,8,3,1
2021-08-12,summer,8,4,1
2021-08-13,summer,8,5,2
2021-08-14,summer,8,6,3
2021-08-15,summer,8,7,3
2021-08-16,summer,8,1,3
2021-08-17,summer,8,2,1
2021-08-18,summer,8,3,1
2021-08-19,summer,8,4,1
2021-08-20,summer,8,5,2
2021-08-21,summer,8,6,3
2021-08-22,summer,8,7,3
2021-08-23,summer,8,1,1
2021-08-24,summer,8,2,1
2021-08-25,summer,8,3,1
2021-08-26,summer,8,4,1
2021-08-27,summer,8,5,2
2021-08-28,summer,8,6,3
2021-08-29,summer,8,7,3
2021-08-30,summer,8,1,1
2021-08-31,summer,8,2,1
2021-09-01,summer,9,3,1
2021-09-02,summer,9,4,1
2021-09-03,summer,9,5,2
2021-09-04,summer,9,6,3
2021-09-05,summer,9,7,3
2021-09-06,summer,9,1,1
2021-09-07,summer,9,2,1
2021-09-08,summer,9,3,1
2021-09-09,summer,9,4,1
2021-09-10,summer,9,5,2
2021-09-11,summer,9,6,3
2021-09-12,summer,9,7,3
2021-09-13,summer,9,1,1
2021-09-14,summer,9,2,1
2021-09-15,summer,9,3,1
2021-09-16,summer,9,4,1
2021-09-17,summer,9,5,2
2021-09-18,summer,9,6,3
2021-09-19,autumn,9,7,3
2021-09-20,autumn,9,1,1
2021-09-21,autumn,9,2,1
2021-09-22,autumn,9,3,1
2021-09-23,autumn,9,4,1
2021-09-24,autumn,9,5,2
2021-09-25,autumn,9,6,3
2021-09-26,autumn,9,7,3
2021-09-27,autumn,9,1,1
2021-09-28,autumn,9,2,1
2021-09-29,autumn,9,3,1
2021-09-30,autumn,9,4,1
2021-10-01,autumn,10,5,2
2021-10-02,autumn,10,6,3
2021-10-03,autumn,10,7,3
2021-10-04,autumn,10,1,1
2021-10-05,autumn,10,2,1
2021-10-06,autumn,10,3,1
2021-10-07,autumn,10,4,1
2021-10-08,autumn,10,5,2
2021-10-09,autumn,10,6,3
2021-10-10,autumn,10,7,3
2021-10-11,autumn,10,1,1
2021-10-12,autumn,10,2,1
2021-10-13,autumn,10,3,1
2021-10-14,autumn,10,4,1
2021-10-15,autumn,10,5,2
2021-10-16,autumn,10,6,3
2021-10-17,autumn,10,7,3
2021-10-18,autumn,10,1,1
2021-10-19,autumn,10,2,1
2021-10-20,autumn,10,3,1
2021-10-21,autumn,10,4,1
2021-10-22,autumn,10,5,2
2021-10-23,autumn,10,6,3
2021-10-24,autumn,10,7,3
2021-10-25,autumn,10,1,1
2021-10-26,autumn,10,2,1
2021-10-27,autumn,10,3,1
2021-10-28,autumn,10,4,1
2021-10-29,autumn,10,5,2
2021-10-30,autumn,10,6,3
2021-10-31,autumn,10,7,3
2021-11-01,autumn,11,1,3
2021-11-02,autumn,11,2,3
2021-11-03,autumn,11,3,3
2021-11-04,autumn,11,4,1
2021-11-05,autumn,11,5,2
2021-11-06,autumn,11,6,3
2021-11-07,autumn,11,7,3
2021-11-08,autumn,11,1,1
2021-11-09,autumn,11,2,1
2021-11-10,autumn,11,3,1
2021-11-11,autumn,11,4,1
2021-11-12,autumn,11,5,2
2021-11-13,autumn,11,6,3
2021-11-14,autumn,11,7,3
2021-11-15,autumn,11,1,1
2021-11-16,autumn,11,2,1
2021-11-17,autumn,11,3,1
2021-11-18,autumn,11,4,1
2021-11-19,autumn,11,5,2
2021-11-20,autumn,11,6,3
2021-11-21,autumn,11,7,3
2021-11-22,autumn,11,1,1
2021-11-23,autumn,11,2,1
2021-11-24,autumn,11,3,1
2021-11-25,autumn,11,4,1
2021-11-26,autumn,11,5,2
2021-11-27,autumn,11,6,3
2021-11-28,autumn,11,7,3
2021-11-29,autumn,11,1,1
2021-11-30,autumn,11,2,1
2021-12-01,autumn,12,3,1
2021-12-02,autumn,12,4,1
2021-12-03,autumn,12,5,2
2021-12-04,autumn,12,6,3
2021-12-05,autumn,12,7,3
2021-12-06,autumn,12,1,1
2021-12-07,autumn,12,2,1
2021-12-08,autumn,12,3,1
2021-12-09,autumn,12,4,1
2021-12-10,autumn,12,5,2
2021-12-11,autumn,12,6,3
2021-12-12,autumn,12,7,3
2021-12-13,autumn,12,1,1
2021-12-14,autumn,12,2,1
2021-12-15,autumn,12,3,1
2021-12-16,autumn,12,4,1
2021-12-17,autumn,12,5,2
2021-12-18,autumn,12,6,3
2021-12-19,autumn,12,7,3
2021-12-20,winter,12,1,1
2021-12-21,winter,12,2,1
2021-12-22,winter,12,3,1
2021-12-23,winter,12,4,1
2021-12-24,winter,12,5,3
2021-12-25,winter,12,6,3
2021-12-26,winter,12,7,3
2021-12-27,winter,12,1,3
2021-12-28,winter,12,2,3
2021-12-29,winter,12,3,3
2021-12-30,winter,12,4,3
2021-12-31,winter,12,5,3
2022-01-01,winter,1,6,3
2022-01-02,winter,1,7,3
2022-01-03,winter,1,1,3
2022-01-04,winter,1,2,3
2022-01-05,winter,1,3,3
2022-01-06,winter,1,4,3
2022-01-07,winter,1,5,2
2022-01-08,winter,1,6,3
2022-01-09,winter,1,7,3
2022-01-10,winter,1,1,1
2022-01-11,winter,1,2,1
2022-01-12,winter,1,3,1
2022-01-13,winter,1,4,1
2022-01-14,winter,1,5,2
2022-01-15,winter,1,6,3
2022-01-16,winter,1,7,3
2022-01-17,winter,1,1,1
2022-01-18,winter,1,2,1
2022-01-19,winter,1,3,1
2022-01-20,winter,1,4,1
2022-01-21,winter,1,5,2
2022-01-22,winter,1,6,3
2022-01-23,winter,1,7,3
2022-01-24,winter,1,1,1
2022-01-25,winter,1,2,1
2022-01-26,winter,1,3,1
2022-01-27,winter,1,4,1
2022-01-28,winter,1,5,2
2022-01-29,winter,1,6,3
2022-01-30,winter,1,7,3
2022-01-31,winter,1,1,1
2022-02-01,winter,2,2,1
2022-02-02,winter,2,3,1
2022-02-03,winter,2,4,1
2022-02-04,winter,2,5,2
2022-02-05,winter,2,6,3
2022-02-06,winter,2,7,3
2022-02-07,winter,2,1,1
2022-02-08,winter,2,2,1
2022-02-09,winter,2,3,1
2022-02-10,winter,2,4,1
2022-02-11,winter,2,5,2
2022-02-12,winter,2,6,3
2022-02-13,winter,2,7,3
2022-02-14,winter,2,1,1
2022-02-15,winter,2,2,1
2022-02-16,winter,2,3,1
2022-02-17,winter,2,4,1
2022-02-18,winter,2,5,2
2022-02-19,winter,2,6,3
2022-02-20,winter,2,7,3
2022-02-21,winter,2,1,1
2022-02-22,winter,2,2,1
2022-02-23,winter,2,3,1
2022-02-24,winter,2,4,1
2022-02-25,winter,2,5,2
2022-02-26,winter,2,6,3
2022-02-27,winter,2,7,3
2022-02-28,winter,2,1,1
2022-03-01,winter,3,2,1
2022-03-02,winter,3,3,1
2022-03-03,winter,3,4,1
2022-03-04,winter,3,5,2
2022-03-05,winter,3,6,3
2022-03-06,winter,3,7,3
2022-03-07,winter,3,1,1
2022-03-08,winter,3,2,1
2022-03-09,winter,3,3,1
2022-03-10,winter,3,4,1
2022-03-11,winter,3,5,2
2022-03-12,winter,3,6,3
2022-03-13,winter,3,7,3
2022-03-14,winter,3,1,1
2022-03-15,winter,3,2,1
2022-03-16,winter,3,3,1
2022-03-17,winter,3,4,1
2022-03-18,winter,3,5,2
2022-03-19,winter,3,6,3
2022-03-20,winter,3,7,3
2022-03-21,spring,3,1,1
2022-03-22,spring,3,2,1
2022-03-23,spring,3,3,1
2022-03-24,spring,3,4,1
2022-03-25,spring,3,5,2
2022-03-26,spring,3,6,3
2022-03-27,spring,3,7,3
2022-03-28,spring,3,1,1
2022-03-29,spring,3,2,1
2022-03-30,spring,3,3,1
2022-03-31,spring,3,4,1
2022-04-01,spring,4,5,2
2022-04-02,spring,4,6,3
2022-04-03,spring,4,7,3
2022-04-04,spring,4,1,1
2022-04-05,spring,4,2,1
2022-04-06,spring,4,3,1
2022-04-07,spring,4,4,1
2022-04-08,spring,4,5,2
2022-04-09,spring,4,6,3
2022-04-10,spring,4,7,3
2022-04-11,spring,4,1,1
2022-04-12,spring,4,2,1
2022-04-13,spring,4,3,1
2022-04-14,spring,4,4,1
2022-04-15,spring,4,5,2
2022-04-16,spring,4,6,3
2022-04-17,spring,4,7,3
2022-04-18,spring,4,1,1
2022-04-19,spring,4,2,1
2022-04-20,spring,4,3,1
2022-04-21,spring,4,4,1
2022-04-22,spring,4,5,2
2022-04-23,spring,4,6,3
2022-04-24,spring,4,7,3
2022-04-25,spring,4,1,3
2022-04-26,spring,4,2,1
2022-04-27,spring,4,3,1
2022-04-28,spring,4,4,1
2022-04-29,spring,4,5,2
2022-04-30,spring,4,6,3
2022-05-01,spring,5,7,3
2022-05-02,spring,5,1,1
2022-05-03,spring,5,2,1
2022-05-04,spring,5,3,1
2022-05-05,spring,5,4,1
2022-05-06,spring,5,5,2
2022-05-07,spring,5,6,3
2022-05-08,spring,5,7,3
2022-05-09,spring,5,1,1
2022-05-10,spring,5,2,1
2022-05-11,spring,5,3,1
2022-05-12,spring,5,4,1
2022-05-13,spring,5,5,2
2022-05-14,spring,5,6,3
2022-05-15,spring,5,7,3
2022-05-16,spring,5,1,1
2022-05-17,spring,5,2,1
2022-05-18,spring,5,3,1
2022-05-19,spring,5,4,1
2022-05-20,spring,5,5,2
2022-05-21,spring,5,6,3
2022-05-22,spring,5,7,3
2022-05-23,spring,5,1,1
2022-05-24,spring,5,2,1
2022-05-25,spring,5,3,1
2022-05-26,spring,5,4,1
2022-05-27,spring,5,5,2
2022-05-28,spring,5,6,3
2022-05-29,spring,5,7,3
2022-05-30,spring,5,1,1
2022-05-31,spring,5,2,1
2022-06-01,spring,6,3,1
2022-06-02,spring,6,4,3
2022-06-03,spring,6,5,2
2022-06-04,spring,6,6,3
2022-06-05,spring,6,7,3
2022-06-06,spring,6,1,1
2022-06-07,spring,6,2,1
2022-06-08,spring,6,3,1
2022-06-09,spring,6,4,1
2022-06-10,spring,6,5,2
2022-06-11,spring,6,6,3
2022-06-12,spring,6,7,3
2022-06-13,spring,6,1,1
2022-06-14,spring,6,2,1
2022-06-15,spring,6,3,1
2022-06-16,spring,6,4,1
2022-06-17,spring,6,5,2
2022-06-18,spring,6,6,3
2022-06-19,spring,6,7,3
2022-06-20,summer,6,1,1
2022-06-21,summer,6,2,1
2022-06-22,summer,6,3,1
2022-06-23,summer,6,4,1
2022-06-24,summer,6,5,2
2022-06-25,summer,6,6,3
2022-06-26,summer,6,7,3
2022-06-27,summer,6,1,1
2022-06-28,summer,6,2,1
2022-06-29,summer,6,3,1
2022-06-30,summer,6,4,1
2022-07-01,summer,7,5,2
2022-07-02,summer,7,6,3
2022-07-03,summer,7,7,3
2022-07-04,summer,7,1,1
2022-07-05,summer,7,2,1
2022-07-06,summer,7,3,1
2022-07-07,summer,7,4,1
2022-07-08,summer,7,5,2
2022-07-09,summer,7,6,3
2022-07-10,summer,7,7,3
2022-07-11,summer,7,1,1
2022-07-12,summer,7,2,1
2022-07-13,summer,7,3,1
2022-07-14,summer,7,4,1
2022-07-15,summer,7,5,2
2022-07-16,summer,7,6,3
2022-07-17,summer,7,7,3
2022-07-18,summer,7,1,1
2022-07-19,summer,7,2,1
2022-07-20,summer,7,3,1
2022-07-21,summer,7,4,1
2022-07-22,summer,7,5,2
2022-07-23,summer,7,6,3
2022-07-24,summer,7,7,3
2022-07-25,summer,7,1,1
2022-07-26,summer,7,2,1
2022-07-27,summer,7,3,1
2022-07-28,summer,7,4,1
2022-07-29,summer,7,5,2
2022-07-30,summer,7,6,3
2022-07-31,summer,7,7,3
2022-08-01,summer,8,1,1
2022-08-02,summer,8,2,1
2022-08-03,summer,8,3,1
2022-08-04,summer,8,4,1
2022-08-05,summer,8,5,2
2022-08-06,summer,8,6,3
2022-08-07,summer,8,7,3
2022-08-08,summer,8,1,1
2022-08-09,summer,8,2,1
2022-08-10,summer,8,3,1
2022-08-11,summer,8,4,1
2022-08-12,summer,8,5,2
2022-08-13,summer,8,6,3
2022-08-14,summer,8,7,3
2022-08-15,summer,8,1,3
2022-08-16,summer,8,2,3
2022-08-17,summer,8,3,1
2022-08-18,summer,8,4,1
2022-08-19,summer,8,5,2
2022-08-20,summer,8,6,3
2022-08-21,summer,8,7,3
2022-08-22,summer,8,1,1
2022-08-23,summer,8,2,1
2022-08-24,summer,8,3,1
2022-08-25,summer,8,4,1
2022-08-26,summer,8,5,2
2022-08-27,summer,8,6,3
2022-08-28,summer,8,7,3
2022-08-29,summer,8,1,1
2022-08-30,summer,8,2,1
2022-08-31,summer,8,3,1
2022-09-01,summer,9,4,1
2022-09-02,summer,9,5,2
2022-09-03,summer,9,6,3
2022-09-04,summer,9,7,3
2022-09-05,summer,9,1,1
2022-09-06,summer,9,2,1
2022-09-07,summer,9,3,1
2022-09-08,summer,9,4,1
2022-09-09,summer,9,5,2
2022-09-10,summer,9,6,3
2022-09-11,summer,9,7,3
2022-09-12,summer,9,1,1
2022-09-13,summer,9,2,1
2022-09-14,summer,9,3,1
2022-09-15,summer,9,4,1
2022-09-16,summer,9,5,2
2022-09-17,summer,9,6,3
2022-09-18,summer,9,7,3
2022-09-19,autumn,9,1,1
2022-09-20,autumn,9,2,1
2022-09-21,autumn,9,3,1
2022-09-22,autumn,9,4,1
2022-09-23,autumn,9,5,2
2022-09-24,autumn,9,6,3
2022-09-25,autumn,9,7,3
2022-09-26,autumn,9,1,1
2022-09-27,autumn,9,2,1
2022-09-28,autumn,9,3,1
2022-09-29,autumn,9,4,1
2022-09-30,autumn,9,5,2
2022-10-01,autumn,10,6,3
2022-10-02,autumn,10,7,3
2022-10-03,autumn,10,1,1
2022-10-04,autumn,10,2,1
2022-10-05,autumn,10,3,1
2022-10-06,autumn,10,4,1
2022-10-07,autumn,10,5,2
2022-10-08,autumn,10,6,3
2022-10-09,autumn,10,7,3
2022-10-10,autumn,10,1,1
2022-10-11,autumn,10,2,1
2022-10-12,autumn,10,3,1
2022-10-13,autumn,10,4,1
2022-10-14,autumn,10,5,2
2022-10-15,autumn,10,6,3
2022-10-16,autumn,10,7,3
2022-10-17,autumn,10,1,1
2022-10-18,autumn,10,2,1
2022-10-19,autumn,10,3,1
2022-10-20,autumn,10,4,1
2022-10-21,autumn,10,5,2
2022-10-22,autumn,10,6,3
2022-10-23,autumn,10,7,3
2022-10-24,autumn,10,1,1
2022-10-25,autumn,10,2,1
2022-10-26,autumn,10,3,1
2022-10-27,autumn,10,4,1
2022-10-28,autumn,10,5,2
2022-10-29,autumn,10,6,3
2022-10-30,autumn,10,7,3
2022-10-31,autumn,10,1,1
2022-11-01,autumn,11,2,3
2022-11-02,autumn,11,3,3
2022-11-03,autumn,11,4,3
2022-11-04,autumn,11,5,2
2022-11-05,autumn,11,6,3
2022-11-06,autumn,11,7,3
2022-11-07,autumn,11,1,1
2022-11-08,autumn,11,2,1
2022-11-09,autumn,11,3,1
2022-11-10,autumn,11,4,1
2022-11-11,autumn,11,5,2
2022-11-12,autumn,11,6,3
2022-11-13,autumn,11,7,3
2022-11-14,autumn,11,1,1
2022-11-15,autumn,11,2,1
2022-11-16,autumn,11,3,1
2022-11-17,autumn,11,4,1
2022-11-18,autumn,11,5,2
2022-11-19,autumn,11,6,3
2022-11-20,autumn,11,7,3
2022-11-21,autumn,11,1,1
2022-11-22,autumn,11,2,1
2022-11-23,autumn,11,3,1
2022-11-24,autumn,11,4,1
2022-11-25,autumn,11,5,2
2022-11-26,autumn,11,6,3
2022-11-27,autumn,11,7,3
2022-11-28,autumn,11,1,1
2022-11-29,autumn,11,2,1
2022-11-30,autumn,11,3,1
2022-12-01,autumn,12,4,1
2022-12-02,autumn,12,5,2
2022-12-03,autumn,12,6,3
2022-12-04,autumn,12,7,3
2022-12-05,autumn,12,1,1
2022-12-06,autumn,12,2,1
2022-12-07,autumn,12,3,1
2022-12-08,autumn,12,4,1
2022-12-09,autumn,12,5,2
2022-12-10,autumn,12,6,3
2022-12-11,autumn,12,7,3
2022-12-12,autumn,12,1,1
2022-12-13,autumn,12,2,1
2022-12-14,autumn,12,3,1
2022-12-15,autumn,12,4,1
2022-12-16,autumn,12,5,2
2022-12-17,autumn,12,6,3
2022-12-18,autumn,12,7,3
2022-12-19,autumn,12,1,1
2022-12-20,winter,12,2,1
2022-12-21,winter,12,3,1
2022-12-22,winter,12,4,1
2022-12-23,winter,12,5,2
2022-12-24,winter,12,6,3
2022-12-25,winter,12,7,3
2022-12-26,winter,12,1,3
2022-12-27,winter,12,2,3
2022-12-28,winter,12,3,3
2022-12-29,winter,12,4,3
2022-12-30,winter,12,5,3
2022-12-31,winter,12,6,3
